-- Merging decision tree log ---
manifest
ADDED from /Users/acelema/Desktop/Kerovit/android/app/src/main/AndroidManifest.xml:1:1-37:12
INJECTED from /Users/acelema/Desktop/Kerovit/android/app/src/main/AndroidManifest.xml:1:1-37:12
INJECTED from /Users/acelema/Desktop/Kerovit/android/app/src/main/AndroidManifest.xml:1:1-37:12
INJECTED from /Users/acelema/Desktop/Kerovit/android/app/src/main/AndroidManifest.xml:1:1-37:12
MERGED from [:react-native-gesture-handler] /Users/acelema/Desktop/Kerovit/node_modules/react-native-gesture-handler/android/build/intermediates/library_manifest/release/AndroidManifest.xml:2:1-11:12
MERGED from [:react-native-reanimated] /Users/acelema/Desktop/Kerovit/node_modules/react-native-reanimated/android/build/intermediates/library_manifest/release/AndroidManifest.xml:2:1-11:12
MERGED from [:react-native-screens] /Users/acelema/Desktop/Kerovit/node_modules/react-native-screens/android/build/intermediates/library_manifest/release/AndroidManifest.xml:2:1-11:12
MERGED from [:react-native-share] /Users/acelema/Desktop/Kerovit/node_modules/react-native-share/android/build/intermediates/library_manifest/release/AndroidManifest.xml:2:1-28:12
MERGED from [:react-native-splash-screen] /Users/acelema/Desktop/Kerovit/node_modules/react-native-splash-screen/android/build/intermediates/library_manifest/release/AndroidManifest.xml:2:1-14:12
MERGED from [:react-native-video] /Users/acelema/Desktop/Kerovit/node_modules/react-native-video/android/build/intermediates/library_manifest/release/AndroidManifest.xml:2:1-11:12
MERGED from [:react-native-webview] /Users/acelema/Desktop/Kerovit/node_modules/react-native-webview/android/build/intermediates/library_manifest/release/AndroidManifest.xml:2:1-23:12
MERGED from [:rn-fetch-blob] /Users/acelema/Desktop/Kerovit/node_modules/rn-fetch-blob/android/build/intermediates/library_manifest/release/AndroidManifest.xml:2:1-47:12
MERGED from [com.facebook.react:react-native:0.61.4] /Users/acelema/.gradle/caches/transforms-2/files-2.1/991b453f8e7ea48ee09edd2c6e702cd2/AndroidManifest.xml:2:1-13:12
MERGED from [androidx.appcompat:appcompat:1.1.0-rc01] /Users/acelema/.gradle/caches/transforms-2/files-2.1/e23e8d8827382d939d66a721bbeaaef8/AndroidManifest.xml:17:1-24:12
MERGED from [androidx.swiperefreshlayout:swiperefreshlayout:1.1.0-alpha02] /Users/acelema/.gradle/caches/transforms-2/files-2.1/38920e6a0e6b6b05f9a646a7d32478e3/AndroidManifest.xml:17:1-24:12
MERGED from [org.webkit:android-jsc:r245459] /Users/acelema/.gradle/caches/transforms-2/files-2.1/6afa1b72b3a863518892c63e93bfdca3/AndroidManifest.xml:2:1-11:12
MERGED from [:react-native-linear-gradient] /Users/acelema/Desktop/Kerovit/node_modules/react-native-linear-gradient/android/build/intermediates/library_manifest/release/AndroidManifest.xml:2:1-11:12
MERGED from [androidx.multidex:multidex:2.0.0] /Users/acelema/.gradle/caches/transforms-2/files-2.1/6bc1623c8094b8d93aaec22fb03d652e/AndroidManifest.xml:17:1-22:12
MERGED from [com.facebook.fresco:fresco:2.0.0] /Users/acelema/.gradle/caches/transforms-2/files-2.1/5c6824b5a64695f30196f0371880a32b/AndroidManifest.xml:2:1-9:12
MERGED from [com.facebook.fresco:imagepipeline-okhttp3:2.0.0] /Users/acelema/.gradle/caches/transforms-2/files-2.1/d3a1ae0c954ad6023b9a5ceb41eda7b6/AndroidManifest.xml:2:1-9:12
MERGED from [com.facebook.fresco:drawee:2.0.0] /Users/acelema/.gradle/caches/transforms-2/files-2.1/9a28dd1724799ebc5d871aa05f43aa18/AndroidManifest.xml:2:1-9:12
MERGED from [com.facebook.fresco:nativeimagefilters:2.0.0] /Users/acelema/.gradle/caches/transforms-2/files-2.1/db13b89552be44719d09fa75af4db22c/AndroidManifest.xml:2:1-9:12
MERGED from [com.facebook.fresco:imagepipeline:2.0.0] /Users/acelema/.gradle/caches/transforms-2/files-2.1/a9bee07d291c2f3813bfed97aa06693d/AndroidManifest.xml:2:1-9:12
MERGED from [com.facebook.fresco:nativeimagetranscoder:2.0.0] /Users/acelema/.gradle/caches/transforms-2/files-2.1/0f55465dd222544179b0e923e6e8a6c0/AndroidManifest.xml:2:1-9:12
MERGED from [com.facebook.fresco:imagepipeline-base:2.0.0] /Users/acelema/.gradle/caches/transforms-2/files-2.1/2369efd8cc6dca61abd220e04bfd32f4/AndroidManifest.xml:2:1-9:12
MERGED from [com.facebook.soloader:soloader:0.6.0] /Users/acelema/.gradle/caches/transforms-2/files-2.1/4dbbeee3fcf7350d972b63cfa78cf6d7/AndroidManifest.xml:2:1-13:12
MERGED from [androidx.fragment:fragment:1.1.0-rc01] /Users/acelema/.gradle/caches/transforms-2/files-2.1/51518cc5e495d545c5e83e5353eda8d3/AndroidManifest.xml:17:1-24:12
MERGED from [androidx.appcompat:appcompat-resources:1.1.0-rc01] /Users/acelema/.gradle/caches/transforms-2/files-2.1/c69e5c638704888af5fee9cf7df8c0cd/AndroidManifest.xml:17:1-24:12
MERGED from [androidx.drawerlayout:drawerlayout:1.0.0] /Users/acelema/.gradle/caches/transforms-2/files-2.1/b92cdfe1aef018141cfafb3382f25cd9/AndroidManifest.xml:17:1-22:12
MERGED from [androidx.transition:transition:1.1.0] /Users/acelema/.gradle/caches/transforms-2/files-2.1/0f481b155f60901f7b9ac64b0d29fd4d/AndroidManifest.xml:17:1-22:12
MERGED from [androidx.viewpager:viewpager:1.0.0] /Users/acelema/.gradle/caches/transforms-2/files-2.1/97d2d4da424f3156fce8845fc21cb5b3/AndroidManifest.xml:17:1-22:12
MERGED from [androidx.loader:loader:1.0.0] /Users/acelema/.gradle/caches/transforms-2/files-2.1/2598cc9ed64cf32c743a6cff2e908b68/AndroidManifest.xml:17:1-22:12
MERGED from [androidx.activity:activity:1.0.0-rc01] /Users/acelema/.gradle/caches/transforms-2/files-2.1/95e9b06a14b36d6272732e6e036eb18e/AndroidManifest.xml:17:1-24:12
MERGED from [androidx.vectordrawable:vectordrawable-animated:1.1.0-rc01] /Users/acelema/.gradle/caches/transforms-2/files-2.1/691e1d545ecc9be1ea686e10444cbf1b/AndroidManifest.xml:17:1-24:12
MERGED from [androidx.vectordrawable:vectordrawable:1.1.0-rc01] /Users/acelema/.gradle/caches/transforms-2/files-2.1/4da5c54a807a8d4675545322822d86dc/AndroidManifest.xml:17:1-24:12
MERGED from [androidx.customview:customview:1.0.0] /Users/acelema/.gradle/caches/transforms-2/files-2.1/ac5d2ca1b8896c0fa33dc17db7c31b97/AndroidManifest.xml:17:1-22:12
MERGED from [androidx.core:core:1.1.0-rc01] /Users/acelema/.gradle/caches/transforms-2/files-2.1/00fb80f9fbe7c205faf2db31dbcd5556/AndroidManifest.xml:17:1-26:12
MERGED from [androidx.cursoradapter:cursoradapter:1.0.0] /Users/acelema/.gradle/caches/transforms-2/files-2.1/106b5a1fcefd4d9984bc3b2e0749a6dd/AndroidManifest.xml:17:1-22:12
MERGED from [androidx.interpolator:interpolator:1.0.0] /Users/acelema/.gradle/caches/transforms-2/files-2.1/a6478d75df5b99fbe61e2846a07c31a0/AndroidManifest.xml:17:1-22:12
MERGED from [androidx.versionedparcelable:versionedparcelable:1.1.0-rc01] /Users/acelema/.gradle/caches/transforms-2/files-2.1/1363a1137db7a7d315928fd90611a970/AndroidManifest.xml:17:1-27:12
MERGED from [androidx.lifecycle:lifecycle-runtime:2.1.0-rc01] /Users/acelema/.gradle/caches/transforms-2/files-2.1/379e98cec3a297f2e1d027eaf496abb5/AndroidManifest.xml:17:1-22:12
MERGED from [androidx.lifecycle:lifecycle-viewmodel:2.1.0-rc01] /Users/acelema/.gradle/caches/transforms-2/files-2.1/932465bb51b3f9cfed239ec2d4cc69e1/AndroidManifest.xml:17:1-22:12
MERGED from [androidx.savedstate:savedstate:1.0.0-rc01] /Users/acelema/.gradle/caches/transforms-2/files-2.1/14b8c8c2c75ae4834fd081d67b258b5b/AndroidManifest.xml:17:1-24:12
MERGED from [androidx.lifecycle:lifecycle-livedata:2.0.0] /Users/acelema/.gradle/caches/transforms-2/files-2.1/2c1b5fa99dab05ae522be7b0e66caaba/AndroidManifest.xml:17:1-22:12
MERGED from [androidx.lifecycle:lifecycle-livedata-core:2.0.0] /Users/acelema/.gradle/caches/transforms-2/files-2.1/502299fe368f7cfcbbe64f36c391f28c/AndroidManifest.xml:17:1-22:12
MERGED from [androidx.arch.core:core-runtime:2.0.0] /Users/acelema/.gradle/caches/transforms-2/files-2.1/f7b6a9f80df54eafe658d5706f791578/AndroidManifest.xml:17:1-22:12
MERGED from [com.yqritc:android-scalablevideoview:1.0.4] /Users/acelema/.gradle/caches/transforms-2/files-2.1/072b9a9e6feb1eea1858918b5702ef37/AndroidManifest.xml:2:1-12:12
MERGED from [com.facebook.fresco:fbcore:2.0.0] /Users/acelema/.gradle/caches/transforms-2/files-2.1/8c45781a5de17e2eb8d84ce8da1d70cb/AndroidManifest.xml:2:1-9:12
INJECTED from /Users/acelema/Desktop/Kerovit/android/app/src/main/AndroidManifest.xml:1:1-37:12
INJECTED from /Users/acelema/Desktop/Kerovit/android/app/src/main/AndroidManifest.xml:1:1-37:12
INJECTED from /Users/acelema/Desktop/Kerovit/android/app/src/main/AndroidManifest.xml:1:1-37:12
	package
		ADDED from /Users/acelema/Desktop/Kerovit/android/app/src/main/AndroidManifest.xml:2:3-24
		INJECTED from /Users/acelema/Desktop/Kerovit/android/app/src/main/AndroidManifest.xml
		INJECTED from /Users/acelema/Desktop/Kerovit/android/app/src/main/AndroidManifest.xml
	android:versionName
		INJECTED from /Users/acelema/Desktop/Kerovit/android/app/src/main/AndroidManifest.xml
		ADDED from /Users/acelema/Desktop/Kerovit/android/app/src/main/AndroidManifest.xml:1:1-37:12
		INJECTED from /Users/acelema/Desktop/Kerovit/android/app/src/main/AndroidManifest.xml
	android:versionCode
		INJECTED from /Users/acelema/Desktop/Kerovit/android/app/src/main/AndroidManifest.xml
		ADDED from /Users/acelema/Desktop/Kerovit/android/app/src/main/AndroidManifest.xml:1:1-37:12
		INJECTED from /Users/acelema/Desktop/Kerovit/android/app/src/main/AndroidManifest.xml
	xmlns:android
		ADDED from /Users/acelema/Desktop/Kerovit/android/app/src/main/AndroidManifest.xml:1:11-69
uses-permission#android.permission.INTERNET
ADDED from /Users/acelema/Desktop/Kerovit/android/app/src/main/AndroidManifest.xml:4:5-67
MERGED from [:rn-fetch-blob] /Users/acelema/Desktop/Kerovit/node_modules/rn-fetch-blob/android/build/intermediates/library_manifest/release/AndroidManifest.xml:15:5-67
MERGED from [:rn-fetch-blob] /Users/acelema/Desktop/Kerovit/node_modules/rn-fetch-blob/android/build/intermediates/library_manifest/release/AndroidManifest.xml:15:5-67
	android:name
		ADDED from /Users/acelema/Desktop/Kerovit/android/app/src/main/AndroidManifest.xml:4:22-64
uses-permission#android.permission.WRITE_EXTERNAL_STORAGE
ADDED from /Users/acelema/Desktop/Kerovit/android/app/src/main/AndroidManifest.xml:5:5-81
MERGED from [:react-native-share] /Users/acelema/Desktop/Kerovit/node_modules/react-native-share/android/build/intermediates/library_manifest/release/AndroidManifest.xml:12:5-81
MERGED from [:react-native-share] /Users/acelema/Desktop/Kerovit/node_modules/react-native-share/android/build/intermediates/library_manifest/release/AndroidManifest.xml:12:5-81
MERGED from [:rn-fetch-blob] /Users/acelema/Desktop/Kerovit/node_modules/rn-fetch-blob/android/build/intermediates/library_manifest/release/AndroidManifest.xml:33:5-81
MERGED from [:rn-fetch-blob] /Users/acelema/Desktop/Kerovit/node_modules/rn-fetch-blob/android/build/intermediates/library_manifest/release/AndroidManifest.xml:33:5-81
	android:name
		ADDED from /Users/acelema/Desktop/Kerovit/android/app/src/main/AndroidManifest.xml:5:22-78
application
ADDED from /Users/acelema/Desktop/Kerovit/android/app/src/main/AndroidManifest.xml:7:5-35:19
MERGED from [:react-native-share] /Users/acelema/Desktop/Kerovit/node_modules/react-native-share/android/build/intermediates/library_manifest/release/AndroidManifest.xml:14:5-26:19
MERGED from [:react-native-share] /Users/acelema/Desktop/Kerovit/node_modules/react-native-share/android/build/intermediates/library_manifest/release/AndroidManifest.xml:14:5-26:19
MERGED from [:react-native-splash-screen] /Users/acelema/Desktop/Kerovit/node_modules/react-native-splash-screen/android/build/intermediates/library_manifest/release/AndroidManifest.xml:11:5-12:19
MERGED from [:react-native-splash-screen] /Users/acelema/Desktop/Kerovit/node_modules/react-native-splash-screen/android/build/intermediates/library_manifest/release/AndroidManifest.xml:11:5-12:19
MERGED from [:react-native-webview] /Users/acelema/Desktop/Kerovit/node_modules/react-native-webview/android/build/intermediates/library_manifest/release/AndroidManifest.xml:11:5-21:19
MERGED from [:react-native-webview] /Users/acelema/Desktop/Kerovit/node_modules/react-native-webview/android/build/intermediates/library_manifest/release/AndroidManifest.xml:11:5-21:19
MERGED from [:rn-fetch-blob] /Users/acelema/Desktop/Kerovit/node_modules/rn-fetch-blob/android/build/intermediates/library_manifest/release/AndroidManifest.xml:35:5-45:19
MERGED from [:rn-fetch-blob] /Users/acelema/Desktop/Kerovit/node_modules/rn-fetch-blob/android/build/intermediates/library_manifest/release/AndroidManifest.xml:35:5-45:19
MERGED from [com.facebook.react:react-native:0.61.4] /Users/acelema/.gradle/caches/transforms-2/files-2.1/991b453f8e7ea48ee09edd2c6e702cd2/AndroidManifest.xml:11:5-20
MERGED from [com.facebook.react:react-native:0.61.4] /Users/acelema/.gradle/caches/transforms-2/files-2.1/991b453f8e7ea48ee09edd2c6e702cd2/AndroidManifest.xml:11:5-20
MERGED from [com.facebook.soloader:soloader:0.6.0] /Users/acelema/.gradle/caches/transforms-2/files-2.1/4dbbeee3fcf7350d972b63cfa78cf6d7/AndroidManifest.xml:11:5-20
MERGED from [com.facebook.soloader:soloader:0.6.0] /Users/acelema/.gradle/caches/transforms-2/files-2.1/4dbbeee3fcf7350d972b63cfa78cf6d7/AndroidManifest.xml:11:5-20
MERGED from [androidx.core:core:1.1.0-rc01] /Users/acelema/.gradle/caches/transforms-2/files-2.1/00fb80f9fbe7c205faf2db31dbcd5556/AndroidManifest.xml:24:5-89
MERGED from [androidx.core:core:1.1.0-rc01] /Users/acelema/.gradle/caches/transforms-2/files-2.1/00fb80f9fbe7c205faf2db31dbcd5556/AndroidManifest.xml:24:5-89
MERGED from [androidx.versionedparcelable:versionedparcelable:1.1.0-rc01] /Users/acelema/.gradle/caches/transforms-2/files-2.1/1363a1137db7a7d315928fd90611a970/AndroidManifest.xml:24:5-25:19
MERGED from [androidx.versionedparcelable:versionedparcelable:1.1.0-rc01] /Users/acelema/.gradle/caches/transforms-2/files-2.1/1363a1137db7a7d315928fd90611a970/AndroidManifest.xml:24:5-25:19
	android:appComponentFactory
		ADDED from [androidx.core:core:1.1.0-rc01] /Users/acelema/.gradle/caches/transforms-2/files-2.1/00fb80f9fbe7c205faf2db31dbcd5556/AndroidManifest.xml:24:18-86
	android:label
		ADDED from /Users/acelema/Desktop/Kerovit/android/app/src/main/AndroidManifest.xml:9:7-39
	android:roundIcon
		ADDED from /Users/acelema/Desktop/Kerovit/android/app/src/main/AndroidManifest.xml:11:7-52
	android:icon
		ADDED from /Users/acelema/Desktop/Kerovit/android/app/src/main/AndroidManifest.xml:10:7-41
	android:allowBackup
		ADDED from /Users/acelema/Desktop/Kerovit/android/app/src/main/AndroidManifest.xml:12:7-34
	android:theme
		ADDED from /Users/acelema/Desktop/Kerovit/android/app/src/main/AndroidManifest.xml:13:7-38
	android:name
		ADDED from /Users/acelema/Desktop/Kerovit/android/app/src/main/AndroidManifest.xml:8:7-38
activity#com.kerovit.SplashActivity
ADDED from /Users/acelema/Desktop/Kerovit/android/app/src/main/AndroidManifest.xml:15:9-24:20
	android:label
		ADDED from /Users/acelema/Desktop/Kerovit/android/app/src/main/AndroidManifest.xml:18:13-45
	android:theme
		ADDED from /Users/acelema/Desktop/Kerovit/android/app/src/main/AndroidManifest.xml:17:13-44
	android:name
		ADDED from /Users/acelema/Desktop/Kerovit/android/app/src/main/AndroidManifest.xml:16:13-43
intent-filter#action:name:android.intent.action.DOWNLOAD_COMPLETE+action:name:android.intent.action.MAIN+category:name:android.intent.category.LAUNCHER
ADDED from /Users/acelema/Desktop/Kerovit/android/app/src/main/AndroidManifest.xml:19:13-23:29
action#android.intent.action.MAIN
ADDED from /Users/acelema/Desktop/Kerovit/android/app/src/main/AndroidManifest.xml:20:17-69
	android:name
		ADDED from /Users/acelema/Desktop/Kerovit/android/app/src/main/AndroidManifest.xml:20:25-66
category#android.intent.category.LAUNCHER
ADDED from /Users/acelema/Desktop/Kerovit/android/app/src/main/AndroidManifest.xml:21:17-77
	android:name
		ADDED from /Users/acelema/Desktop/Kerovit/android/app/src/main/AndroidManifest.xml:21:27-74
action#android.intent.action.DOWNLOAD_COMPLETE
ADDED from /Users/acelema/Desktop/Kerovit/android/app/src/main/AndroidManifest.xml:22:17-81
	android:name
		ADDED from /Users/acelema/Desktop/Kerovit/android/app/src/main/AndroidManifest.xml:22:25-79
activity#com.kerovit.MainActivity
ADDED from /Users/acelema/Desktop/Kerovit/android/app/src/main/AndroidManifest.xml:26:7-33:18
	android:screenOrientation
		ADDED from /Users/acelema/Desktop/Kerovit/android/app/src/main/AndroidManifest.xml:31:9-45
	android:label
		ADDED from /Users/acelema/Desktop/Kerovit/android/app/src/main/AndroidManifest.xml:28:9-41
	android:windowSoftInputMode
		ADDED from /Users/acelema/Desktop/Kerovit/android/app/src/main/AndroidManifest.xml:30:9-51
	android:exported
		ADDED from /Users/acelema/Desktop/Kerovit/android/app/src/main/AndroidManifest.xml:32:9-32
	android:configChanges
		ADDED from /Users/acelema/Desktop/Kerovit/android/app/src/main/AndroidManifest.xml:29:9-79
	android:name
		ADDED from /Users/acelema/Desktop/Kerovit/android/app/src/main/AndroidManifest.xml:27:9-37
activity#com.facebook.react.devsupport.DevSettingsActivity
ADDED from /Users/acelema/Desktop/Kerovit/android/app/src/main/AndroidManifest.xml:34:7-84
	android:name
		ADDED from /Users/acelema/Desktop/Kerovit/android/app/src/main/AndroidManifest.xml:34:17-81
uses-sdk
INJECTED from /Users/acelema/Desktop/Kerovit/android/app/src/main/AndroidManifest.xml reason: use-sdk injection requested
INJECTED from /Users/acelema/Desktop/Kerovit/android/app/src/main/AndroidManifest.xml
INJECTED from /Users/acelema/Desktop/Kerovit/android/app/src/main/AndroidManifest.xml
MERGED from [:react-native-gesture-handler] /Users/acelema/Desktop/Kerovit/node_modules/react-native-gesture-handler/android/build/intermediates/library_manifest/release/AndroidManifest.xml:7:5-9:41
MERGED from [:react-native-gesture-handler] /Users/acelema/Desktop/Kerovit/node_modules/react-native-gesture-handler/android/build/intermediates/library_manifest/release/AndroidManifest.xml:7:5-9:41
MERGED from [:react-native-reanimated] /Users/acelema/Desktop/Kerovit/node_modules/react-native-reanimated/android/build/intermediates/library_manifest/release/AndroidManifest.xml:7:5-9:41
MERGED from [:react-native-reanimated] /Users/acelema/Desktop/Kerovit/node_modules/react-native-reanimated/android/build/intermediates/library_manifest/release/AndroidManifest.xml:7:5-9:41
MERGED from [:react-native-screens] /Users/acelema/Desktop/Kerovit/node_modules/react-native-screens/android/build/intermediates/library_manifest/release/AndroidManifest.xml:7:5-9:41
MERGED from [:react-native-screens] /Users/acelema/Desktop/Kerovit/node_modules/react-native-screens/android/build/intermediates/library_manifest/release/AndroidManifest.xml:7:5-9:41
MERGED from [:react-native-share] /Users/acelema/Desktop/Kerovit/node_modules/react-native-share/android/build/intermediates/library_manifest/release/AndroidManifest.xml:8:5-10:41
MERGED from [:react-native-share] /Users/acelema/Desktop/Kerovit/node_modules/react-native-share/android/build/intermediates/library_manifest/release/AndroidManifest.xml:8:5-10:41
MERGED from [:react-native-splash-screen] /Users/acelema/Desktop/Kerovit/node_modules/react-native-splash-screen/android/build/intermediates/library_manifest/release/AndroidManifest.xml:7:5-9:41
MERGED from [:react-native-splash-screen] /Users/acelema/Desktop/Kerovit/node_modules/react-native-splash-screen/android/build/intermediates/library_manifest/release/AndroidManifest.xml:7:5-9:41
MERGED from [:react-native-video] /Users/acelema/Desktop/Kerovit/node_modules/react-native-video/android/build/intermediates/library_manifest/release/AndroidManifest.xml:7:5-9:41
MERGED from [:react-native-video] /Users/acelema/Desktop/Kerovit/node_modules/react-native-video/android/build/intermediates/library_manifest/release/AndroidManifest.xml:7:5-9:41
MERGED from [:react-native-webview] /Users/acelema/Desktop/Kerovit/node_modules/react-native-webview/android/build/intermediates/library_manifest/release/AndroidManifest.xml:7:5-9:41
MERGED from [:react-native-webview] /Users/acelema/Desktop/Kerovit/node_modules/react-native-webview/android/build/intermediates/library_manifest/release/AndroidManifest.xml:7:5-9:41
MERGED from [:rn-fetch-blob] /Users/acelema/Desktop/Kerovit/node_modules/rn-fetch-blob/android/build/intermediates/library_manifest/release/AndroidManifest.xml:7:5-9:41
MERGED from [:rn-fetch-blob] /Users/acelema/Desktop/Kerovit/node_modules/rn-fetch-blob/android/build/intermediates/library_manifest/release/AndroidManifest.xml:7:5-9:41
MERGED from [com.facebook.react:react-native:0.61.4] /Users/acelema/.gradle/caches/transforms-2/files-2.1/991b453f8e7ea48ee09edd2c6e702cd2/AndroidManifest.xml:7:5-9:41
MERGED from [com.facebook.react:react-native:0.61.4] /Users/acelema/.gradle/caches/transforms-2/files-2.1/991b453f8e7ea48ee09edd2c6e702cd2/AndroidManifest.xml:7:5-9:41
MERGED from [androidx.appcompat:appcompat:1.1.0-rc01] /Users/acelema/.gradle/caches/transforms-2/files-2.1/e23e8d8827382d939d66a721bbeaaef8/AndroidManifest.xml:20:5-22:41
MERGED from [androidx.appcompat:appcompat:1.1.0-rc01] /Users/acelema/.gradle/caches/transforms-2/files-2.1/e23e8d8827382d939d66a721bbeaaef8/AndroidManifest.xml:20:5-22:41
MERGED from [androidx.swiperefreshlayout:swiperefreshlayout:1.1.0-alpha02] /Users/acelema/.gradle/caches/transforms-2/files-2.1/38920e6a0e6b6b05f9a646a7d32478e3/AndroidManifest.xml:20:5-22:41
MERGED from [androidx.swiperefreshlayout:swiperefreshlayout:1.1.0-alpha02] /Users/acelema/.gradle/caches/transforms-2/files-2.1/38920e6a0e6b6b05f9a646a7d32478e3/AndroidManifest.xml:20:5-22:41
MERGED from [org.webkit:android-jsc:r245459] /Users/acelema/.gradle/caches/transforms-2/files-2.1/6afa1b72b3a863518892c63e93bfdca3/AndroidManifest.xml:7:5-9:41
MERGED from [org.webkit:android-jsc:r245459] /Users/acelema/.gradle/caches/transforms-2/files-2.1/6afa1b72b3a863518892c63e93bfdca3/AndroidManifest.xml:7:5-9:41
MERGED from [:react-native-linear-gradient] /Users/acelema/Desktop/Kerovit/node_modules/react-native-linear-gradient/android/build/intermediates/library_manifest/release/AndroidManifest.xml:7:5-9:41
MERGED from [:react-native-linear-gradient] /Users/acelema/Desktop/Kerovit/node_modules/react-native-linear-gradient/android/build/intermediates/library_manifest/release/AndroidManifest.xml:7:5-9:41
MERGED from [androidx.multidex:multidex:2.0.0] /Users/acelema/.gradle/caches/transforms-2/files-2.1/6bc1623c8094b8d93aaec22fb03d652e/AndroidManifest.xml:20:5-43
MERGED from [androidx.multidex:multidex:2.0.0] /Users/acelema/.gradle/caches/transforms-2/files-2.1/6bc1623c8094b8d93aaec22fb03d652e/AndroidManifest.xml:20:5-43
MERGED from [com.facebook.fresco:fresco:2.0.0] /Users/acelema/.gradle/caches/transforms-2/files-2.1/5c6824b5a64695f30196f0371880a32b/AndroidManifest.xml:5:5-7:41
MERGED from [com.facebook.fresco:fresco:2.0.0] /Users/acelema/.gradle/caches/transforms-2/files-2.1/5c6824b5a64695f30196f0371880a32b/AndroidManifest.xml:5:5-7:41
MERGED from [com.facebook.fresco:imagepipeline-okhttp3:2.0.0] /Users/acelema/.gradle/caches/transforms-2/files-2.1/d3a1ae0c954ad6023b9a5ceb41eda7b6/AndroidManifest.xml:5:5-7:41
MERGED from [com.facebook.fresco:imagepipeline-okhttp3:2.0.0] /Users/acelema/.gradle/caches/transforms-2/files-2.1/d3a1ae0c954ad6023b9a5ceb41eda7b6/AndroidManifest.xml:5:5-7:41
MERGED from [com.facebook.fresco:drawee:2.0.0] /Users/acelema/.gradle/caches/transforms-2/files-2.1/9a28dd1724799ebc5d871aa05f43aa18/AndroidManifest.xml:5:5-7:41
MERGED from [com.facebook.fresco:drawee:2.0.0] /Users/acelema/.gradle/caches/transforms-2/files-2.1/9a28dd1724799ebc5d871aa05f43aa18/AndroidManifest.xml:5:5-7:41
MERGED from [com.facebook.fresco:nativeimagefilters:2.0.0] /Users/acelema/.gradle/caches/transforms-2/files-2.1/db13b89552be44719d09fa75af4db22c/AndroidManifest.xml:5:5-7:41
MERGED from [com.facebook.fresco:nativeimagefilters:2.0.0] /Users/acelema/.gradle/caches/transforms-2/files-2.1/db13b89552be44719d09fa75af4db22c/AndroidManifest.xml:5:5-7:41
MERGED from [com.facebook.fresco:imagepipeline:2.0.0] /Users/acelema/.gradle/caches/transforms-2/files-2.1/a9bee07d291c2f3813bfed97aa06693d/AndroidManifest.xml:5:5-7:41
MERGED from [com.facebook.fresco:imagepipeline:2.0.0] /Users/acelema/.gradle/caches/transforms-2/files-2.1/a9bee07d291c2f3813bfed97aa06693d/AndroidManifest.xml:5:5-7:41
MERGED from [com.facebook.fresco:nativeimagetranscoder:2.0.0] /Users/acelema/.gradle/caches/transforms-2/files-2.1/0f55465dd222544179b0e923e6e8a6c0/AndroidManifest.xml:5:5-7:41
MERGED from [com.facebook.fresco:nativeimagetranscoder:2.0.0] /Users/acelema/.gradle/caches/transforms-2/files-2.1/0f55465dd222544179b0e923e6e8a6c0/AndroidManifest.xml:5:5-7:41
MERGED from [com.facebook.fresco:imagepipeline-base:2.0.0] /Users/acelema/.gradle/caches/transforms-2/files-2.1/2369efd8cc6dca61abd220e04bfd32f4/AndroidManifest.xml:5:5-7:41
MERGED from [com.facebook.fresco:imagepipeline-base:2.0.0] /Users/acelema/.gradle/caches/transforms-2/files-2.1/2369efd8cc6dca61abd220e04bfd32f4/AndroidManifest.xml:5:5-7:41
MERGED from [com.facebook.soloader:soloader:0.6.0] /Users/acelema/.gradle/caches/transforms-2/files-2.1/4dbbeee3fcf7350d972b63cfa78cf6d7/AndroidManifest.xml:7:5-9:41
MERGED from [com.facebook.soloader:soloader:0.6.0] /Users/acelema/.gradle/caches/transforms-2/files-2.1/4dbbeee3fcf7350d972b63cfa78cf6d7/AndroidManifest.xml:7:5-9:41
MERGED from [androidx.fragment:fragment:1.1.0-rc01] /Users/acelema/.gradle/caches/transforms-2/files-2.1/51518cc5e495d545c5e83e5353eda8d3/AndroidManifest.xml:20:5-22:41
MERGED from [androidx.fragment:fragment:1.1.0-rc01] /Users/acelema/.gradle/caches/transforms-2/files-2.1/51518cc5e495d545c5e83e5353eda8d3/AndroidManifest.xml:20:5-22:41
MERGED from [androidx.appcompat:appcompat-resources:1.1.0-rc01] /Users/acelema/.gradle/caches/transforms-2/files-2.1/c69e5c638704888af5fee9cf7df8c0cd/AndroidManifest.xml:20:5-22:41
MERGED from [androidx.appcompat:appcompat-resources:1.1.0-rc01] /Users/acelema/.gradle/caches/transforms-2/files-2.1/c69e5c638704888af5fee9cf7df8c0cd/AndroidManifest.xml:20:5-22:41
MERGED from [androidx.drawerlayout:drawerlayout:1.0.0] /Users/acelema/.gradle/caches/transforms-2/files-2.1/b92cdfe1aef018141cfafb3382f25cd9/AndroidManifest.xml:20:5-44
MERGED from [androidx.drawerlayout:drawerlayout:1.0.0] /Users/acelema/.gradle/caches/transforms-2/files-2.1/b92cdfe1aef018141cfafb3382f25cd9/AndroidManifest.xml:20:5-44
MERGED from [androidx.transition:transition:1.1.0] /Users/acelema/.gradle/caches/transforms-2/files-2.1/0f481b155f60901f7b9ac64b0d29fd4d/AndroidManifest.xml:20:5-44
MERGED from [androidx.transition:transition:1.1.0] /Users/acelema/.gradle/caches/transforms-2/files-2.1/0f481b155f60901f7b9ac64b0d29fd4d/AndroidManifest.xml:20:5-44
MERGED from [androidx.viewpager:viewpager:1.0.0] /Users/acelema/.gradle/caches/transforms-2/files-2.1/97d2d4da424f3156fce8845fc21cb5b3/AndroidManifest.xml:20:5-44
MERGED from [androidx.viewpager:viewpager:1.0.0] /Users/acelema/.gradle/caches/transforms-2/files-2.1/97d2d4da424f3156fce8845fc21cb5b3/AndroidManifest.xml:20:5-44
MERGED from [androidx.loader:loader:1.0.0] /Users/acelema/.gradle/caches/transforms-2/files-2.1/2598cc9ed64cf32c743a6cff2e908b68/AndroidManifest.xml:20:5-44
MERGED from [androidx.loader:loader:1.0.0] /Users/acelema/.gradle/caches/transforms-2/files-2.1/2598cc9ed64cf32c743a6cff2e908b68/AndroidManifest.xml:20:5-44
MERGED from [androidx.activity:activity:1.0.0-rc01] /Users/acelema/.gradle/caches/transforms-2/files-2.1/95e9b06a14b36d6272732e6e036eb18e/AndroidManifest.xml:20:5-22:41
MERGED from [androidx.activity:activity:1.0.0-rc01] /Users/acelema/.gradle/caches/transforms-2/files-2.1/95e9b06a14b36d6272732e6e036eb18e/AndroidManifest.xml:20:5-22:41
MERGED from [androidx.vectordrawable:vectordrawable-animated:1.1.0-rc01] /Users/acelema/.gradle/caches/transforms-2/files-2.1/691e1d545ecc9be1ea686e10444cbf1b/AndroidManifest.xml:20:5-22:41
MERGED from [androidx.vectordrawable:vectordrawable-animated:1.1.0-rc01] /Users/acelema/.gradle/caches/transforms-2/files-2.1/691e1d545ecc9be1ea686e10444cbf1b/AndroidManifest.xml:20:5-22:41
MERGED from [androidx.vectordrawable:vectordrawable:1.1.0-rc01] /Users/acelema/.gradle/caches/transforms-2/files-2.1/4da5c54a807a8d4675545322822d86dc/AndroidManifest.xml:20:5-22:41
MERGED from [androidx.vectordrawable:vectordrawable:1.1.0-rc01] /Users/acelema/.gradle/caches/transforms-2/files-2.1/4da5c54a807a8d4675545322822d86dc/AndroidManifest.xml:20:5-22:41
MERGED from [androidx.customview:customview:1.0.0] /Users/acelema/.gradle/caches/transforms-2/files-2.1/ac5d2ca1b8896c0fa33dc17db7c31b97/AndroidManifest.xml:20:5-44
MERGED from [androidx.customview:customview:1.0.0] /Users/acelema/.gradle/caches/transforms-2/files-2.1/ac5d2ca1b8896c0fa33dc17db7c31b97/AndroidManifest.xml:20:5-44
MERGED from [androidx.core:core:1.1.0-rc01] /Users/acelema/.gradle/caches/transforms-2/files-2.1/00fb80f9fbe7c205faf2db31dbcd5556/AndroidManifest.xml:20:5-22:41
MERGED from [androidx.core:core:1.1.0-rc01] /Users/acelema/.gradle/caches/transforms-2/files-2.1/00fb80f9fbe7c205faf2db31dbcd5556/AndroidManifest.xml:20:5-22:41
MERGED from [androidx.cursoradapter:cursoradapter:1.0.0] /Users/acelema/.gradle/caches/transforms-2/files-2.1/106b5a1fcefd4d9984bc3b2e0749a6dd/AndroidManifest.xml:20:5-44
MERGED from [androidx.cursoradapter:cursoradapter:1.0.0] /Users/acelema/.gradle/caches/transforms-2/files-2.1/106b5a1fcefd4d9984bc3b2e0749a6dd/AndroidManifest.xml:20:5-44
MERGED from [androidx.interpolator:interpolator:1.0.0] /Users/acelema/.gradle/caches/transforms-2/files-2.1/a6478d75df5b99fbe61e2846a07c31a0/AndroidManifest.xml:20:5-44
MERGED from [androidx.interpolator:interpolator:1.0.0] /Users/acelema/.gradle/caches/transforms-2/files-2.1/a6478d75df5b99fbe61e2846a07c31a0/AndroidManifest.xml:20:5-44
MERGED from [androidx.versionedparcelable:versionedparcelable:1.1.0-rc01] /Users/acelema/.gradle/caches/transforms-2/files-2.1/1363a1137db7a7d315928fd90611a970/AndroidManifest.xml:20:5-22:41
MERGED from [androidx.versionedparcelable:versionedparcelable:1.1.0-rc01] /Users/acelema/.gradle/caches/transforms-2/files-2.1/1363a1137db7a7d315928fd90611a970/AndroidManifest.xml:20:5-22:41
MERGED from [androidx.lifecycle:lifecycle-runtime:2.1.0-rc01] /Users/acelema/.gradle/caches/transforms-2/files-2.1/379e98cec3a297f2e1d027eaf496abb5/AndroidManifest.xml:20:5-44
MERGED from [androidx.lifecycle:lifecycle-runtime:2.1.0-rc01] /Users/acelema/.gradle/caches/transforms-2/files-2.1/379e98cec3a297f2e1d027eaf496abb5/AndroidManifest.xml:20:5-44
MERGED from [androidx.lifecycle:lifecycle-viewmodel:2.1.0-rc01] /Users/acelema/.gradle/caches/transforms-2/files-2.1/932465bb51b3f9cfed239ec2d4cc69e1/AndroidManifest.xml:20:5-44
MERGED from [androidx.lifecycle:lifecycle-viewmodel:2.1.0-rc01] /Users/acelema/.gradle/caches/transforms-2/files-2.1/932465bb51b3f9cfed239ec2d4cc69e1/AndroidManifest.xml:20:5-44
MERGED from [androidx.savedstate:savedstate:1.0.0-rc01] /Users/acelema/.gradle/caches/transforms-2/files-2.1/14b8c8c2c75ae4834fd081d67b258b5b/AndroidManifest.xml:20:5-22:41
MERGED from [androidx.savedstate:savedstate:1.0.0-rc01] /Users/acelema/.gradle/caches/transforms-2/files-2.1/14b8c8c2c75ae4834fd081d67b258b5b/AndroidManifest.xml:20:5-22:41
MERGED from [androidx.lifecycle:lifecycle-livedata:2.0.0] /Users/acelema/.gradle/caches/transforms-2/files-2.1/2c1b5fa99dab05ae522be7b0e66caaba/AndroidManifest.xml:20:5-44
MERGED from [androidx.lifecycle:lifecycle-livedata:2.0.0] /Users/acelema/.gradle/caches/transforms-2/files-2.1/2c1b5fa99dab05ae522be7b0e66caaba/AndroidManifest.xml:20:5-44
MERGED from [androidx.lifecycle:lifecycle-livedata-core:2.0.0] /Users/acelema/.gradle/caches/transforms-2/files-2.1/502299fe368f7cfcbbe64f36c391f28c/AndroidManifest.xml:20:5-44
MERGED from [androidx.lifecycle:lifecycle-livedata-core:2.0.0] /Users/acelema/.gradle/caches/transforms-2/files-2.1/502299fe368f7cfcbbe64f36c391f28c/AndroidManifest.xml:20:5-44
MERGED from [androidx.arch.core:core-runtime:2.0.0] /Users/acelema/.gradle/caches/transforms-2/files-2.1/f7b6a9f80df54eafe658d5706f791578/AndroidManifest.xml:20:5-44
MERGED from [androidx.arch.core:core-runtime:2.0.0] /Users/acelema/.gradle/caches/transforms-2/files-2.1/f7b6a9f80df54eafe658d5706f791578/AndroidManifest.xml:20:5-44
MERGED from [com.yqritc:android-scalablevideoview:1.0.4] /Users/acelema/.gradle/caches/transforms-2/files-2.1/072b9a9e6feb1eea1858918b5702ef37/AndroidManifest.xml:8:5-10:41
MERGED from [com.yqritc:android-scalablevideoview:1.0.4] /Users/acelema/.gradle/caches/transforms-2/files-2.1/072b9a9e6feb1eea1858918b5702ef37/AndroidManifest.xml:8:5-10:41
MERGED from [com.facebook.fresco:fbcore:2.0.0] /Users/acelema/.gradle/caches/transforms-2/files-2.1/8c45781a5de17e2eb8d84ce8da1d70cb/AndroidManifest.xml:5:5-7:41
MERGED from [com.facebook.fresco:fbcore:2.0.0] /Users/acelema/.gradle/caches/transforms-2/files-2.1/8c45781a5de17e2eb8d84ce8da1d70cb/AndroidManifest.xml:5:5-7:41
INJECTED from /Users/acelema/Desktop/Kerovit/android/app/src/main/AndroidManifest.xml
INJECTED from /Users/acelema/Desktop/Kerovit/android/app/src/main/AndroidManifest.xml
	android:targetSdkVersion
		INJECTED from /Users/acelema/Desktop/Kerovit/android/app/src/main/AndroidManifest.xml
		ADDED from /Users/acelema/Desktop/Kerovit/android/app/src/main/AndroidManifest.xml
		INJECTED from /Users/acelema/Desktop/Kerovit/android/app/src/main/AndroidManifest.xml
	android:minSdkVersion
		INJECTED from /Users/acelema/Desktop/Kerovit/android/app/src/main/AndroidManifest.xml
		ADDED from /Users/acelema/Desktop/Kerovit/android/app/src/main/AndroidManifest.xml
		INJECTED from /Users/acelema/Desktop/Kerovit/android/app/src/main/AndroidManifest.xml
provider#cl.json.RNShareFileProvider
ADDED from [:react-native-share] /Users/acelema/Desktop/Kerovit/node_modules/react-native-share/android/build/intermediates/library_manifest/release/AndroidManifest.xml:15:9-25:20
	android:grantUriPermissions
		ADDED from [:react-native-share] /Users/acelema/Desktop/Kerovit/node_modules/react-native-share/android/build/intermediates/library_manifest/release/AndroidManifest.xml:19:13-47
	android:authorities
		ADDED from [:react-native-share] /Users/acelema/Desktop/Kerovit/node_modules/react-native-share/android/build/intermediates/library_manifest/release/AndroidManifest.xml:17:13-72
	android:exported
		ADDED from [:react-native-share] /Users/acelema/Desktop/Kerovit/node_modules/react-native-share/android/build/intermediates/library_manifest/release/AndroidManifest.xml:18:13-37
	tools:replace
		ADDED from [:react-native-share] /Users/acelema/Desktop/Kerovit/node_modules/react-native-share/android/build/intermediates/library_manifest/release/AndroidManifest.xml:20:13-48
	android:name
		ADDED from [:react-native-share] /Users/acelema/Desktop/Kerovit/node_modules/react-native-share/android/build/intermediates/library_manifest/release/AndroidManifest.xml:16:13-55
meta-data#android.support.FILE_PROVIDER_PATHS
ADDED from [:react-native-share] /Users/acelema/Desktop/Kerovit/node_modules/react-native-share/android/build/intermediates/library_manifest/release/AndroidManifest.xml:21:13-24:52
	android:resource
		ADDED from [:react-native-share] /Users/acelema/Desktop/Kerovit/node_modules/react-native-share/android/build/intermediates/library_manifest/release/AndroidManifest.xml:23:17-61
	tools:replace
		ADDED from [:react-native-share] /Users/acelema/Desktop/Kerovit/node_modules/react-native-share/android/build/intermediates/library_manifest/release/AndroidManifest.xml:24:17-49
	android:name
		ADDED from [:react-native-share] /Users/acelema/Desktop/Kerovit/node_modules/react-native-share/android/build/intermediates/library_manifest/release/AndroidManifest.xml:22:17-67
provider#com.reactnativecommunity.webview.RNCWebViewFileProvider
ADDED from [:react-native-webview] /Users/acelema/Desktop/Kerovit/node_modules/react-native-webview/android/build/intermediates/library_manifest/release/AndroidManifest.xml:12:9-20:20
	android:grantUriPermissions
		ADDED from [:react-native-webview] /Users/acelema/Desktop/Kerovit/node_modules/react-native-webview/android/build/intermediates/library_manifest/release/AndroidManifest.xml:16:13-47
	android:authorities
		ADDED from [:react-native-webview] /Users/acelema/Desktop/Kerovit/node_modules/react-native-webview/android/build/intermediates/library_manifest/release/AndroidManifest.xml:14:13-64
	android:exported
		ADDED from [:react-native-webview] /Users/acelema/Desktop/Kerovit/node_modules/react-native-webview/android/build/intermediates/library_manifest/release/AndroidManifest.xml:15:13-37
	android:name
		ADDED from [:react-native-webview] /Users/acelema/Desktop/Kerovit/node_modules/react-native-webview/android/build/intermediates/library_manifest/release/AndroidManifest.xml:13:13-83
uses-permission#com.android.vending.CHECK_LICENSE
ADDED from [:rn-fetch-blob] /Users/acelema/Desktop/Kerovit/node_modules/rn-fetch-blob/android/build/intermediates/library_manifest/release/AndroidManifest.xml:12:5-73
	android:name
		ADDED from [:rn-fetch-blob] /Users/acelema/Desktop/Kerovit/node_modules/rn-fetch-blob/android/build/intermediates/library_manifest/release/AndroidManifest.xml:12:22-70
uses-permission#android.permission.WAKE_LOCK
ADDED from [:rn-fetch-blob] /Users/acelema/Desktop/Kerovit/node_modules/rn-fetch-blob/android/build/intermediates/library_manifest/release/AndroidManifest.xml:21:5-68
	android:name
		ADDED from [:rn-fetch-blob] /Users/acelema/Desktop/Kerovit/node_modules/rn-fetch-blob/android/build/intermediates/library_manifest/release/AndroidManifest.xml:21:22-65
uses-permission#android.permission.ACCESS_NETWORK_STATE
ADDED from [:rn-fetch-blob] /Users/acelema/Desktop/Kerovit/node_modules/rn-fetch-blob/android/build/intermediates/library_manifest/release/AndroidManifest.xml:27:5-79
	android:name
		ADDED from [:rn-fetch-blob] /Users/acelema/Desktop/Kerovit/node_modules/rn-fetch-blob/android/build/intermediates/library_manifest/release/AndroidManifest.xml:27:22-76
uses-permission#android.permission.ACCESS_WIFI_STATE
ADDED from [:rn-fetch-blob] /Users/acelema/Desktop/Kerovit/node_modules/rn-fetch-blob/android/build/intermediates/library_manifest/release/AndroidManifest.xml:30:5-76
	android:name
		ADDED from [:rn-fetch-blob] /Users/acelema/Desktop/Kerovit/node_modules/rn-fetch-blob/android/build/intermediates/library_manifest/release/AndroidManifest.xml:30:22-73
provider#com.RNFetchBlob.Utils.FileProvider
ADDED from [:rn-fetch-blob] /Users/acelema/Desktop/Kerovit/node_modules/rn-fetch-blob/android/build/intermediates/library_manifest/release/AndroidManifest.xml:36:9-44:20
	android:grantUriPermissions
		ADDED from [:rn-fetch-blob] /Users/acelema/Desktop/Kerovit/node_modules/rn-fetch-blob/android/build/intermediates/library_manifest/release/AndroidManifest.xml:40:13-47
	android:authorities
		ADDED from [:rn-fetch-blob] /Users/acelema/Desktop/Kerovit/node_modules/rn-fetch-blob/android/build/intermediates/library_manifest/release/AndroidManifest.xml:38:13-60
	android:exported
		ADDED from [:rn-fetch-blob] /Users/acelema/Desktop/Kerovit/node_modules/rn-fetch-blob/android/build/intermediates/library_manifest/release/AndroidManifest.xml:39:13-37
	android:name
		ADDED from [:rn-fetch-blob] /Users/acelema/Desktop/Kerovit/node_modules/rn-fetch-blob/android/build/intermediates/library_manifest/release/AndroidManifest.xml:37:13-62
